Rendu
…
Rendu

    Author

             Manon Eluard 

# A tibble: 603 × 14
   title    artist top g…¹  year   bpm  nrgy  dnce    dB  live   val   dur acous
   <chr>    <chr>  <chr>   <int> <dbl> <dbl> <dbl> <dbl> <dbl> <dbl> <dbl> <dbl>
 1 Hey, So… Train  neo me…  2010    97    89    67    -4     8    80   217    19
 2 Love Th… Eminem detroi…  2010    87    93    75    -5    52    64   263    24
 3 TiK ToK  Kesha  dance …  2010   120    84    76    -3    29    71   200    10
 4 Bad Rom… Lady … dance …  2010   119    92    70    -4     8    71   295     0
 5 Just th… Bruno… pop      2010   109    84    64    -5     9    43   221     2
 6 Baby     Justi… canadi…  2010    65    86    73    -5    11    54   214     4
 7 Dynamite Taio … dance …  2010   120    78    75    -4     4    82   203     0
 8 Secrets  OneRe… dance …  2010   148    76    52    -6    12    38   225     7
 9 Empire … Alici… hip pop  2010    93    37    48    -8    12    14   216    74
10 Only Gi… Rihan… barbad…  2010   126    72    79    -4     7    61   235    13
# … with 593 more rows, 2 more variables: spch <dbl>, pop <dbl>, and
#   abbreviated variable name ¹​`top genre`
…
Exercice 2

Question

# A tibble: 4,424 × 37
   Marital stat…¹ Appli…² Appli…³ Course Dayti…⁴ Previ…⁵ Previ…⁶ Nacio…⁷ Mothe…⁸
   <fct>          <fct>   <fct>   <fct>  <fct>   <fct>     <dbl> <fct>   <fct>  
 1 single         17      5       171    1       1          122  1       19     
 2 single         15      1       9254   1       1          160  1       1      
 3 single         1       5       9070   1       1          122  1       37     
 4 single         17      2       9773   1       1          122  1       38     
 5 married        39      1       8014   0       1          100  1       37     
 6 married        39      1       9991   0       19         133. 1       37     
 7 single         1       1       9500   1       1          142  1       19     
 8 single         18      4       9254   1       1          119  1       37     
 9 single         1       3       9238   1       1          137  62      1      
10 single         1       1       9238   1       1          138  1       1      
# … with 4,414 more rows, 28 more variables: `Father's qualification` <fct>,
#   `Mother's occupation` <fct>, `Father's occupation` <fct>,
#   `Admission grade` <dbl>, Displaced <fct>,
#   `Educational special needs` <fct>, Debtor <fct>,
#   `Tuition fees up to date` <fct>, Gender <fct>, `Scholarship holder` <lgl>,
#   `Age at enrollment` <dbl>, International <fct>,
#   `Curricular units 1st sem (credited)` <dbl>, …
…
